ISSS608-VAA - Take-home Exercise 2
…
3.5 Joining of HSCodes to MC2_edges

Thereafter, we weaved in the Description from “Connect2India Harmonized System Code” and populated the Description information within MC2_edges to gain a better understanding of what each hscode means.

From the below, we can see that there are several hscode that are not related to “fishery” products. For example, hscode 630630 refers to sails.

Show code

MC2_edges <- left_join(MC2_edges, hscode_map, by = c("hscode" = "HS_Code")) %>%
  select(source, target, arrivaldate, year, hscode, Description, valueofgoods_omu, volumeteu, weightkg, valueofgoodsusd)

MC2_edges

# A tibble: 5,309,087 × 10
   source target arrivaldate  year hscode Description valueofgoods_omu volumeteu
   <chr>  <chr>  <date>      <dbl> <chr>  <chr>                  <dbl>     <dbl>
 1 AquaD… Barin… 2034-02-12   2034 630630 Sails                 141015         0
 2 AquaD… Barin… 2034-03-13   2034 630630 Sails                 141015         0
 3 AquaD… -15045 2028-02-07   2028 470710 Waste or s…               NA         0
 4 AquaD… -15045 2028-02-23   2028 470710 Waste or s…               NA         0
 5 AquaD… -15045 2028-09-11   2028 470710 Waste or s…               NA         0
 6 AquaD… -15045 2028-10-09   2028 470710 Waste or s…               NA         0
 7 AquaD… Océan… 2028-04-12   2028 304890 <NA>                      NA         0
 8 AquaD… Olas … 2028-06-04   2028 304890 <NA>                      NA         0
 9 AquaD… Shou … 2028-09-03   2028 303890 <NA>                      NA         0
10 AquaD… Shou … 2028-09-08   2028 306170 <NA>                      NA         0
# ℹ 5,309,077 more rows
# ℹ 2 more variables: weightkg <int>, valueofgoodsusd <dbl>
…
top30_hscode

3.6 Refining MC2_edges to fish related HSCodes

To ensure a more effective analysis, we tidied up MC2_edges to only contain hscode that begins with 301 to 308 or 1604 and 1605 to scope MC2_edges towards fish related products. However, as seen from the below output, it seems like there are not sufficient information within the description columns to inform us of the specific product tied to the hscode.

Show code

MC2_edges <- MC2_edges %>%
  filter(str_detect(hscode, "^(301|302|303|304|305|306|307|308|1604|1605)"))

MC2_edges

# A tibble: 739,363 × 10
   source target arrivaldate  year hscode Description valueofgoods_omu volumeteu
   <chr>  <chr>  <date>      <dbl> <chr>  <chr>                  <dbl>     <dbl>
 1 AquaD… Océan… 2028-04-12   2028 304890 <NA>                      NA         0
 2 AquaD… Olas … 2028-06-04   2028 304890 <NA>                      NA         0
 3 AquaD… Shou … 2028-09-03   2028 303890 <NA>                      NA         0
 4 AquaD… Shou … 2028-09-08   2028 306170 <NA>                      NA         0
 5 AquaD… Costa… 2029-02-04   2029 304790 <NA>                      NA         0
 6 AquaD… Costa… 2029-02-04   2029 304790 <NA>                      NA         0
 7 AquaD… Elara… 2029-04-22   2029 304620 <NA>                      NA         0
 8 AquaD… Elara… 2029-04-22   2029 304620 <NA>                      NA         0
 9 AquaD… Fishe… 2030-03-10   2030 304990 <NA>                      NA         0
10 AquaD… Fishe… 2033-09-23   2033 304990 <NA>                      NA         0
# ℹ 739,353 more rows
# ℹ 2 more variables: weightkg <int>, valueofgoodsusd <dbl>
Therefore, we created a new column to store the hscode_parent where it will contain only the first three digit of the hscode. With this, we then map the description from Connect2India Harmonized System Code to gleam further insights into the worded description.

Show code

MC2_edges <- MC2_edges %>%
  mutate(hscode_parent = substr(hscode, 1, 3))

MC2_edges <- MC2_edges %>%
  left_join(hscode_map_thirdparent, by = c("hscode_parent" = "HS_Code")) %>%
  select(-S.No.)%>%
  rename(hscode_des = Description.x, hscode_parent_des = Description.y)

MC2_edges

# A tibble: 739,363 × 12
   source  target arrivaldate  year hscode hscode_des valueofgoods_omu volumeteu
   <chr>   <chr>  <date>      <dbl> <chr>  <chr>                 <dbl>     <dbl>
 1 AquaDe… Océan… 2028-04-12   2028 304890 <NA>                     NA         0
 2 AquaDe… Olas … 2028-06-04   2028 304890 <NA>                     NA         0
 3 AquaDe… Shou … 2028-09-03   2028 303890 <NA>                     NA         0
 4 AquaDe… Shou … 2028-09-08   2028 306170 <NA>                     NA         0
 5 AquaDe… Costa… 2029-02-04   2029 304790 <NA>                     NA         0
 6 AquaDe… Costa… 2029-02-04   2029 304790 <NA>                     NA         0
 7 AquaDe… Elara… 2029-04-22   2029 304620 <NA>                     NA         0
 8 AquaDe… Elara… 2029-04-22   2029 304620 <NA>                     NA         0
 9 AquaDe… Fishe… 2030-03-10   2030 304990 <NA>                     NA         0
10 AquaDe… Fishe… 2033-09-23   2033 304990 <NA>                     NA         0
# ℹ 739,353 more rows
# ℹ 4 more variables: weightkg <int>, valueofgoodsusd <dbl>,
#   hscode_parent <chr>, hscode_parent_des <chr>
…
