ISSS608-VAA - Take-home Exercise 1
…
Show code

duplicated_check_participants <- participants %>% filter(duplicated(participants))
duplicated_check_financialjournal <- financialjournal %>% filter(duplicated(financialjournal))
duplicated_check_participants

# A tibble: 0 × 7
# ℹ 7 variables: participantId <dbl>, householdSize <dbl>, haveKids <lgl>,
#   age <dbl>, educationLevel <chr>, interestGroup <chr>, joviality <dbl>

Show code

duplicated_check_financialjournal

# A tibble: 1,113 × 4
   participantId timestamp           category   amount
           <dbl> <dttm>              <chr>       <dbl>
 1             0 2022-03-01 00:00:00 Shelter    -555. 
 2             0 2022-03-01 00:00:00 Education   -38.0
 3             1 2022-03-01 00:00:00 Shelter    -555. 
 4             1 2022-03-01 00:00:00 Education   -38.0
 5             2 2022-03-01 00:00:00 Shelter    -557. 
 6             2 2022-03-01 00:00:00 Education   -12.8
 7             3 2022-03-01 00:00:00 Shelter    -555. 
 8             3 2022-03-01 00:00:00 Education   -38.0
 9             4 2022-03-01 00:00:00 Shelter   -1556. 
10             4 2022-03-01 00:00:00 Education   -12.8
# ℹ 1,103 more rows
…
Show code

# Get the list of participantIds with only one month of data
participants_check <- financialjournal_new %>%
  group_by(participantId) %>%
  summarize(num_months = n_distinct(YearMonth)) %>%
  filter(num_months != 12) %>%
  pull(participantId)

# Filter financialjournal_new to sieve out rows with participantIds that have only one month of data
financialjournal_new %>%
  filter((participantId %in% participants_check))

# A tibble: 131 × 17
# Groups:   participantId, YearMonth [131]
   participantId timestamp           Education  Food Recreation Shelter  Wage
           <dbl> <dttm>                  <dbl> <dbl>      <dbl>   <dbl> <dbl>
 1            44 2022-03-01 00:00:00      12.8  38.5          0       0 2236.
 2           127 2022-03-01 00:00:00       0    55.8          0       0 2764.
 3           142 2022-03-01 00:00:00       0    64.7          0       0 2845.
 4           154 2022-03-01 00:00:00       0    58.6          0       0 2595.
 5           161 2022-03-01 00:00:00       0    41.0          0       0 2679.
 6           256 2022-03-01 00:00:00      91.1  73.4          0       0 2505.
 7           262 2022-03-01 00:00:00      91.1  60.1          0       0 2740.
 8           267 2022-03-01 00:00:00      91.1  74.7          0       0 2642.
 9           279 2022-03-01 00:00:00      91.1  51.8          0       0 2396.
10           285 2022-03-01 00:00:00      91.1  68.2          0       0 2692.
# ℹ 121 more rows
# ℹ 10 more variables: savings <dbl>, spending <dbl>, YearMonth <chr>,
#   avg_education <dbl>, avg_food <dbl>, avg_recreation <dbl>,
#   avg_shelter <dbl>, avg_wage <dbl>, avg_savings <dbl>, avg_spending <dbl>
…
Show code

financialjournal_avg <- financialjournal_new %>%
  group_by(participantId) %>%
  summarize(avg_education = mean(Education),
            avg_food = mean(Food),
            avg_recreation = mean(Recreation),
            avg_shelter = mean(Shelter),
            avg_wage = mean(Wage),
            avg_savings = mean(savings),
            avg_spending = mean(spending))

financialjournal_avg

# A tibble: 1,011 × 8
   participantId avg_education avg_food avg_recreation avg_shelter avg_wage
           <dbl>         <dbl>    <dbl>          <dbl>       <dbl>    <dbl>
 1             0          38.0     262.           365.        555.    9151.
 2             1          38.0     264.           553.        555.    8031.
 3             2          12.8     289.           348.        557.    7092.
 4             3          38.0     283.           392.        555.    6856.
 5             4          12.8     272.           526.       1004.    8838.
 6             5          12.8     345.           428.        600.    1934.
 7             6          12.8     318.           631.        581.    1951.
 8             7          12.8     505.           481.       1013.    6073.
 9             8          12.8     497.           442.       1180.    3712.
10             9          91.1     286.           376.        558.   12715.
# ℹ 1,001 more rows
# ℹ 2 more variables: avg_savings <dbl>, avg_spending <dbl>
…
